<?xml version="1.0" encoding="UTF-8" standalone="no"?>
<svg
   version="1.1"
   x="0px"
   y="0px"
   viewBox="0 0 256 256"
   enable-background="new 0 0 256 256"
   xml:space="preserve"
   id="svg4"
   sodipodi:docname="geolia.svg"
   inkscape:version="1.3.2 (091e20ef0f, 2023-11-25, custom)"
   xmlns:inkscape="http://www.inkscape.org/namespaces/inkscape"
   xmlns:sodipodi="http://sodipodi.sourceforge.net/DTD/sodipodi-0.dtd"
   xmlns="http://www.w3.org/2000/svg"
   xmlns:svg="http://www.w3.org/2000/svg">
   
            
            
    <path
   class="cls-1"
   id="path5"
   style="fill:none;fill-opacity:1;stroke:#2c89a0;stroke-width:3.99999;"
   d="m 109.18057,12.483978 a 74.886277,74.70363 0 0 0 -74.886285,74.703631 74.886277,74.70363 0 0 0 74.886285,74.703631 74.886277,74.70363 0 0 0 74.88628,-74.703631 74.886277,74.70363 0 0 0 -0.68159,-9.90991 H 130.63724 V 125.03258 H 84.798644 V 50.328946 H 174.29066 A 74.886277,74.70363 0 0 0 109.18057,12.483978 Z" />
   <path
   class="cls-1"
   id="rect5-5"
   style="fill:none;stroke:#2c89a0;stroke-width:4.00001"
   d="m 197.36092,118.80896 h 24.36072 v 24.3013 h -24.36072 z" />
   <path
   class="cls-1"
   fill="none"
   stroke-width="3.99999"
   stroke="#2c89a0"
   data-title="Layer 2"
   xs="2"
   d="M 146.60637,180.94189 119.77746,241.3247 76.014701,180.83581 Z"
   id="path3-3" />
   </svg>
